\relax 
\providecommand\HyperFirstAtBeginDocument{\AtBeginDocument}
\HyperFirstAtBeginDocument{\ifx\hyper@anchor\@undefined
\global\let\oldcontentsline\contentsline
\gdef\contentsline#1#2#3#4{\oldcontentsline{#1}{#2}{#3}}
\global\let\oldnewlabel\newlabel
\gdef\newlabel#1#2{\newlabelxx{#1}#2}
\gdef\newlabelxx#1#2#3#4#5#6{\oldnewlabel{#1}{{#2}{#3}}}
\AtEndDocument{\ifx\hyper@anchor\@undefined
\let\contentsline\oldcontentsline
\let\newlabel\oldnewlabel
\fi}
\fi}
\global\let\hyper@last\relax 
\gdef\HyperFirstAtBeginDocument#1{#1}
\providecommand\HyField@AuxAddToFields[1]{}
\citation{intro:collins,intro:gliozzo,intro:moschitti}
\citation{intro:pighin}
\citation{rw:vapnik}
\citation{rw:haussler}
\citation{rw:lodhi}
\citation{intro:collins}
\citation{rw:culotta}
\citation{rw:zelenko}
\citation{rw:pighin,intro:pighin}
\@writefile{toc}{\contentsline {section}{\numberline {1}Introduction}{1}{section.1}}
\newlabel{sec:intro}{{1}{1}{Introduction\relax }{section.1}{}}
\@writefile{toc}{\contentsline {section}{\numberline {2}Related Work}{1}{section.2}}
\citation{rw:luss}
\citation{rw:ruiz}
\citation{rw:lavrenko}
\citation{rw:luss}
\citation{rw:lavrenko}
\citation{rw:tetlock}
\citation{rw:agarwal}
\citation{rw:baker}
\citation{rw:fillmore}
\citation{rw:das}
\citation{intro:ruppenhofer}
\@writefile{toc}{\contentsline {section}{\numberline {3}Data Representation}{2}{section.3}}
\newlabel{sec:feature_study}{{3}{2}{Data Representation\relax }{section.3}{}}
\@writefile{toc}{\contentsline {subsection}{\numberline {3.1}Frame Tree}{2}{subsection.3.1}}
\newlabel{sec:ft}{{3.1}{2}{Frame Tree\relax }{subsection.3.1}{}}
\@writefile{toc}{\contentsline {subsection}{\numberline {3.2}Semantic Tree}{2}{subsection.3.2}}
\newlabel{sec:st}{{3.2}{2}{Semantic Tree\relax }{subsection.3.2}{}}
\@writefile{lof}{\contentsline {figure}{\numberline {1}{\ignorespaces Frame-Tree for ``Oracle sued Google in August 2010.''}}{3}{figure.1}}
\newlabel{fig:ft}{{1}{3}{Frame-Tree for ``Oracle sued Google in August 2010.''\relax }{figure.1}{}}
\@writefile{lof}{\contentsline {figure}{\numberline {2}{\ignorespaces Example Semantic Tree for (''Oracle sued Google in August 2010.``, Oracle)}}{3}{figure.2}}
\newlabel{fig:semtree}{{2}{3}{Example Semantic Tree for (''Oracle sued Google in August 2010.``, Oracle)\relax }{figure.2}{}}
\@writefile{lof}{\contentsline {figure}{\numberline {3}{\ignorespaces Procedure Flow for Generating Semantic Tree}}{3}{figure.3}}
\newlabel{fig:combtr}{{3}{3}{Procedure Flow for Generating Semantic Tree\relax }{figure.3}{}}
\@writefile{toc}{\contentsline {subsection}{\numberline {3.3}DAL features}{3}{subsection.3.3}}
\@writefile{toc}{\contentsline {section}{\numberline {4}Methodology}{3}{section.4}}
\newlabel{sec:method}{{4}{3}{Methodology\relax }{section.4}{}}
\@writefile{toc}{\contentsline {subsection}{\numberline {4.1}Tree Kernel SVM}{3}{subsection.4.1}}
\citation{intro:collins,collins2001convolution}
\citation{rw:pighin}
\citation{rw:pighin}
\citation{joachims2002optimizing}
\@writefile{toc}{\contentsline {subsection}{\numberline {4.2}Linearized Tree Kernel}{4}{subsection.4.2}}
\@writefile{lof}{\contentsline {figure}{\numberline {4}{\ignorespaces  Imported Logistics for linearizing Tree Kernel}}{4}{figure.4}}
\newlabel{fig:lin}{{4}{4}{Imported Logistics for linearizing Tree Kernel\relax }{figure.4}{}}
\newlabel{alg:fmi}{{1}{5}{Linearized Tree Kernel\relax }{algocf.1}{}}
\@writefile{loa}{\contentsline {algocf}{\numberline {1}{\ignorespaces MINE\_TREE(tree)}}{5}{algocf.1}}
\@writefile{toc}{\contentsline {subsection}{\numberline {4.3}Ranking SVM}{5}{subsection.4.3}}
\@writefile{toc}{\contentsline {section}{\numberline {5}Experimental Results}{5}{section.5}}
\newlabel{sec:experiment}{{5}{5}{Experimental Results\relax }{section.5}{}}
\@writefile{toc}{\contentsline {subsection}{\numberline {5.1}Data Set}{5}{subsection.5.1}}
\@writefile{lot}{\contentsline {table}{\numberline {1}{\ignorespaces  The Number of Cases in the Data Set}}{5}{table.1}}
\newlabel{tb:dtst}{{1}{5}{The Number of Cases in the Data Set\relax }{table.1}{}}
\@writefile{toc}{\contentsline {subsection}{\numberline {5.2}Classification Task}{5}{subsection.5.2}}
\bibstyle{acl}
\bibdata{acl}
\bibcite{rw:agarwal}{\citename {Agarwal \bgroup et al.\egroup }2011}
\@writefile{lot}{\contentsline {table}{\numberline {2}{\ignorespaces  Classification Result}}{6}{table.2}}
\newlabel{tb:cls}{{2}{6}{Classification Result\relax }{table.2}{}}
\@writefile{toc}{\contentsline {subsection}{\numberline {5.3}Ranking Task}{6}{subsection.5.3}}
\@writefile{toc}{\contentsline {subsection}{\numberline {5.4}Feature Correlation}{6}{subsection.5.4}}
\@writefile{toc}{\contentsline {section}{\numberline {6}Conclusion \& Future Work}{6}{section.6}}
\newlabel{sec:conclusion}{{6}{6}{Conclusion \& Future Work\relax }{section.6}{}}
\@writefile{toc}{\contentsline {subsection}{\numberline {6.1}Conclusion}{6}{subsection.6.1}}
\@writefile{toc}{\contentsline {subsection}{\numberline {6.2}Future Work}{6}{subsection.6.2}}
\bibcite{rw:baker}{\citename {Baker \bgroup et al.\egroup }1998}
\bibcite{collins2001convolution}{\citename {Collins and Duffy}2001}
\bibcite{intro:collins}{\citename {Collins and Duffy}2002}
\bibcite{rw:culotta}{\citename {Culotta and Sorensen}2004}
\bibcite{rw:das}{\citename {Das and Smith}2011}
\bibcite{rw:fillmore}{\citename {Fillmore}1976}
\bibcite{intro:gliozzo}{\citename {Gliozzo \bgroup et al.\egroup }2005}
\bibcite{rw:haussler}{\citename {Haussler}1999}
\bibcite{joachims2002optimizing}{\citename {Joachims}2002}
\bibcite{rw:lavrenko}{\citename {Lavrenko \bgroup et al.\egroup }2000}
\bibcite{rw:lodhi}{\citename {Lodhi \bgroup et al.\egroup }2002}
\@writefile{lot}{\contentsline {table}{\numberline {3}{\ignorespaces  Ranking Result}}{7}{table.3}}
\newlabel{tb:rank}{{3}{7}{Ranking Result\relax }{table.3}{}}
\@writefile{lot}{\contentsline {table}{\numberline {4}{\ignorespaces  Ranking Result}}{7}{table.4}}
\newlabel{tb:fr}{{4}{7}{Ranking Result\relax }{table.4}{}}
\bibcite{rw:luss}{\citename {Luss and dʼAspremont}2008}
\bibcite{intro:moschitti}{\citename {Moschitti \bgroup et al.\egroup }2008}
\bibcite{rw:pighin}{\citename {Pighin and Moschitti}2009a}
\bibcite{intro:pighin}{\citename {Pighin and Moschitti}2009b}
\bibcite{rw:ruiz}{\citename {Ruiz \bgroup et al.\egroup }2012}
\bibcite{intro:ruppenhofer}{\citename {Ruppenhofer and Rehbein}2012}
\bibcite{rw:tetlock}{\citename {Tetlock \bgroup et al.\egroup }2008}
\bibcite{rw:vapnik}{\citename {Vapnik}1999}
\bibcite{rw:zelenko}{\citename {Zelenko \bgroup et al.\egroup }2003}
