This is BibTeX, Version 0.99d (TeX Live 2012/MacPorts 2012_9)
Capacity: max_strings=35307, hash_size=35307, hash_prime=30011
The top-level auxiliary file: report.aux
The style file: acl.bst
Database file #1: acl.bib
Warning--there's a number but no volume in rw:luss
You've used 21 entries,
            2490 wiz_defined-function locations,
            691 strings with 8554 characters,
and the built_in function-call counts, 10268 in all, are:
= -- 1154
> -- 339
< -- 13
+ -- 115
- -- 112
* -- 751
:= -- 1547
add.period$ -- 95
call.type$ -- 21
change.case$ -- 140
chr.to.int$ -- 20
cite$ -- 22
duplicate$ -- 456
empty$ -- 786
format.name$ -- 141
if$ -- 2249
int.to.chr$ -- 2
int.to.str$ -- 0
missing$ -- 21
newline$ -- 129
num.names$ -- 63
pop$ -- 131
preamble$ -- 1
purify$ -- 161
quote$ -- 0
skip$ -- 372
stack$ -- 0
substring$ -- 651
swap$ -- 148
text.length$ -- 13
text.prefix$ -- 0
top$ -- 0
type$ -- 168
warning$ -- 1
while$ -- 93
width$ -- 23
write$ -- 330
(There was 1 warning)
